Controlling display of numbers
…
Rule-based decoration

library(dplyr)

data_units <-
  palmerpenguins::penguins %>%
  mutate(across(ends_with("_mm"), set_units, "mm")) %>%
  mutate(across(ends_with("_g"), set_units, "g"))

data_units %>%
  mutate(bill_area = bill_length_mm * bill_depth_mm, .after = island)
#> # A tibble: 344 x 9
#>    species island    bill_area bill_length_mm bill_depth_mm flipper_length_mm
#>    <fct>   <fct>        [mm^2]           [mm]          [mm]              [mm]
#>  1 Adelie  Torgersen    731.17           39.1          18.7               181
#>  2 Adelie  Torgersen    687.3            39.5          17.4               186
#>  3 Adelie  Torgersen    725.4            40.3          18                 195
#>  4 Adelie  Torgersen     NA              NA            NA                  NA
#>  5 Adelie  Torgersen    708.31           36.7          19.3               193
#>  6 Adelie  Torgersen    809.58           39.3          20.6               190
#>  7 Adelie  Torgersen    692.42           38.9          17.8               181
#>  8 Adelie  Torgersen    768.32           39.2          19.6               195
#>  9 Adelie  Torgersen    617.21           34.1          18.1               193
#> 10 Adelie  Torgersen    848.4            42            20.2               190
#> # … with 334 more rows, and 3 more variables: body_mass_g [g], sex <fct>,
#> #   year <int>

data_decor <-
  data_units %>%
  decorate(year, digits = 0) %>%
  decorate(where(is.numeric), digits = 3)

data_decor %>%
  mutate(bill_area = bill_length_mm * bill_depth_mm, .after = island)

#> # A tibble: 344 x 9
#>    species island    bill_area bill_length_mm bill_depth_mm flipper_length_mm
#>    <fct>   <fct>        [mm^2]           [mm]          [mm]              [mm]
#>  1 Adelie  Torgersen   731.170         39.100        18.700           181.000
#>  2 Adelie  Torgersen   687.300         39.500        17.400           186.000
#>  3 Adelie  Torgersen   725.400         40.300        18.000           195.000
#>  4 Adelie  Torgersen    NA             NA            NA                NA    
#>  5 Adelie  Torgersen   708.310         36.700        19.300           193.000
#>  6 Adelie  Torgersen   809.580         39.300        20.600           190.000
#>  7 Adelie  Torgersen   692.420         38.900        17.800           181.000
#>  8 Adelie  Torgersen   768.320         39.200        19.600           195.000
#>  9 Adelie  Torgersen   617.210         34.100        18.100           193.000
#> 10 Adelie  Torgersen   848.400         42.000        20.200           190.000
#> # … with 334 more rows, and 3 more variables: body_mass_g [g], sex <fct>,
#> #   year <int>
…
